…
### Read and clean Mr. Trash Wheel set

``` r
mr_trash_wheel =
  read_excel("./data/Trash-Wheel-Collection-Totals-8-6-19.xlsx", sheet = 1,
             range = "A2:N406") %>%
              janitor::clean_names() %>%
              drop_na(dumpster) %>%
              mutate(sports_balls = as.integer(round(sports_balls, digits = 0)))

mr_trash_wheel
```

    ## # A tibble: 344 x 14
    ##    dumpster month  year date                weight_tons volume_cubic_ya~
    ##       <dbl> <chr> <dbl> <dttm>                    <dbl>            <dbl>
    ##  1        1 May    2014 2014-05-16 00:00:00        4.31               18
    ##  2        2 May    2014 2014-05-16 00:00:00        2.74               13
    ##  3        3 May    2014 2014-05-16 00:00:00        3.45               15
    ##  4        4 May    2014 2014-05-17 00:00:00        3.1                15
    ##  5        5 May    2014 2014-05-17 00:00:00        4.06               18
    ##  6        6 May    2014 2014-05-20 00:00:00        2.71               13
    ##  7        7 May    2014 2014-05-21 00:00:00        1.91                8
    ##  8        8 May    2014 2014-05-28 00:00:00        3.7                16
    ##  9        9 June   2014 2014-06-05 00:00:00        2.52               14
    ## 10       10 June   2014 2014-06-11 00:00:00        3.76               18
    ## # ... with 334 more rows, and 8 more variables: plastic_bottles <dbl>,
    ## #   polystyrene <dbl>, cigarette_butts <dbl>, glass_bottles <dbl>,
    ## #   grocery_bags <dbl>, chip_bags <dbl>, sports_balls <int>,
    ## #   homes_powered <dbl>
…
``` r
# Change president to "dem" if prez_dem = 1
for (row in 1:nrow(pols)) {
  if (pols[row, "prez_dem"] == 1) {
    pols[row, "president"] = "dem"
  }
}

# Remove prez_gop and prez_dem
pols = select(pols, -prez_gop, -prez_dem)

pols
```

    ## # A tibble: 822 x 9
    ##    year  month    gov_gop sen_gop rep_gop gov_dem sen_dem rep_dem president
    ##    <chr> <chr>      <dbl>   <dbl>   <dbl>   <dbl>   <dbl>   <dbl> <chr>    
    ##  1 1947  January       23      51     253      23      45     198 dem      
    ##  2 1947  February      23      51     253      23      45     198 dem      
    ##  3 1947  March         23      51     253      23      45     198 dem      
    ##  4 1947  April         23      51     253      23      45     198 dem      
    ##  5 1947  May           23      51     253      23      45     198 dem      
    ##  6 1947  June          23      51     253      23      45     198 dem      
    ##  7 1947  July          23      51     253      23      45     198 dem      
    ##  8 1947  August        23      51     253      23      45     198 dem      
    ##  9 1947  Septemb~      23      51     253      23      45     198 dem      
    ## 10 1947  October       23      51     253      23      45     198 dem      
    ## # ... with 812 more rows
…
    ## Parsed with column specification:
    ## cols(
    ##   date = col_character(),
    ##   close = col_double()
    ## )

``` r
snp
```

    ## # A tibble: 787 x 3
    ##    year  month    close
    ##    <chr> <chr>    <dbl>
    ##  1 2015  July     2080.
    ##  2 2015  June     2063.
    ##  3 2015  May      2107.
    ##  4 2015  April    2086.
    ##  5 2015  March    2068.
    ##  6 2015  February 2104.
    ##  7 2015  January  1995.
    ##  8 2014  December 2059.
    ##  9 2014  November 2068.
    ## 10 2014  October  2018.
    ## # ... with 777 more rows
…
``` r
unemployment
```

    ## # A tibble: 816 x 3
    ##    year  month     unemployment
    ##    <chr> <chr>            <dbl>
    ##  1 1948  January            3.4
    ##  2 1948  February           3.8
    ##  3 1948  March              4  
    ##  4 1948  April              3.9
    ##  5 1948  May                3.5
    ##  6 1948  June               3.6
    ##  7 1948  July               3.6
    ##  8 1948  August             3.9
    ##  9 1948  September          3.8
    ## 10 1948  October            3.7
    ## # ... with 806 more rows

### Join the datasets

``` r
fivethirtyeight_data = left_join(pols, snp, by = c("year", "month"))

fivethirtyeight_data =
  left_join(fivethirtyeight_data, unemployment, by = c("year", "month"))

fivethirtyeight_data
```

    ## # A tibble: 822 x 11
    ##    year  month gov_gop sen_gop rep_gop gov_dem sen_dem rep_dem president
    ##    <chr> <chr>   <dbl>   <dbl>   <dbl>   <dbl>   <dbl>   <dbl> <chr>    
    ##  1 1947  Janu~      23      51     253      23      45     198 dem      
    ##  2 1947  Febr~      23      51     253      23      45     198 dem      
    ##  3 1947  March      23      51     253      23      45     198 dem      
    ##  4 1947  April      23      51     253      23      45     198 dem      
    ##  5 1947  May        23      51     253      23      45     198 dem      
    ##  6 1947  June       23      51     253      23      45     198 dem      
    ##  7 1947  July       23      51     253      23      45     198 dem      
    ##  8 1947  Augu~      23      51     253      23      45     198 dem      
    ##  9 1947  Sept~      23      51     253      23      45     198 dem      
    ## 10 1947  Octo~      23      51     253      23      45     198 dem      
    ## # ... with 812 more rows, and 2 more variables: close <dbl>,
    ## #   unemployment <dbl>
…
# Remove duplicates
baby_names = distinct(baby_names)

baby_names
```

    ## # A tibble: 12,181 x 6
    ##    year_of_birth gender ethnicity              childs_first_na~ count  rank
    ##            <dbl> <chr>  <chr>                  <chr>            <dbl> <dbl>
    ##  1          2016 FEMALE ASIAN AND PACIFIC ISL~ Olivia             172     1
    ##  2          2016 FEMALE ASIAN AND PACIFIC ISL~ Chloe              112     2
    ##  3          2016 FEMALE ASIAN AND PACIFIC ISL~ Sophia             104     3
    ##  4          2016 FEMALE ASIAN AND PACIFIC ISL~ Emily               99     4
    ##  5          2016 FEMALE ASIAN AND PACIFIC ISL~ Emma                99     4
    ##  6          2016 FEMALE ASIAN AND PACIFIC ISL~ Mia                 79     5
    ##  7          2016 FEMALE ASIAN AND PACIFIC ISL~ Charlotte           59     6
    ##  8          2016 FEMALE ASIAN AND PACIFIC ISL~ Sarah               57     7
    ##  9          2016 FEMALE ASIAN AND PACIFIC ISL~ Isabella            56     8
    ## 10          2016 FEMALE ASIAN AND PACIFIC ISL~ Hannah              56     8
    ## # ... with 12,171 more rows
…
